-------------------------------------------------------------------------------
Test set: net.phptravels.TopNavigationBar.ViewHotelDetailsByHotelNameTest
-------------------------------------------------------------------------------
Tests run: 1, Failures: 1, Errors: 0, Skipped: 0, Time elapsed: 30.241 s <<< FAILURE! - in net.phptravels.TopNavigationBar.ViewHotelDetailsByHotelNameTest
viewHotelDetailsByHotelName(net.phptravels.TopNavigationBar.ViewHotelDetailsByHotelNameTest)  Time elapsed: 27.26 s  <<< FAILURE!
java.lang.AssertionError: expected [ISLAMABAD MARRIOTT HOTEL] but found [Islamabad Marriott Hotel]
	at net.phptravels.TopNavigationBar.ViewHotelDetailsByHotelNameTest.viewHotelDetailsByHotelName(ViewHotelDetailsByHotelNameTest.java:35)

